[
  {
    "Author": "Windmourn",
    "Name": "SkipCutscene",
    "Punchline": "Help you skip cutscene from Duty Roulette: Main Scenario.",
    "Description": "A plugin which could help you skip cutscene from Duty Roulette: Main Scenario.",
    "Tags": [ "utility" ],
    "InternalName": "SkipCutscene",
    "AssemblyVersion": "1.2.2.3",
    "RepoUrl": "https://github.com/a08381/Dalamud.SkipCutscene",
    "ApplicableVersion": "any",
    "DalamudApiLevel": 9,
    "IsHide": "False",
    "IsTestingExclusive": "False",
    "DownloadCount": 1,
    "LastUpdate": 1640036270,
    "DownloadLinkTesting": "https://github.com/a08381/Dalamud.SkipCutscene/raw/dist/latest.zip",
    "DownloadLinkInstall": "https://github.com/a08381/Dalamud.SkipCutscene/raw/dist/latest.zip",
    "DownloadLinkUpdate": "https://github.com/a08381/Dalamud.SkipCutscene/raw/dist/latest.zip"
  }
]
